{
  "id": "bb508779-0dc2-3d54-b6c9-260fe7263085",
  "kind": "cm:global:appsvcs-templates:appsvcstemplatestate",
  "name": "nbcu-anow-https-to-http-n-nodewise-v2022",
  "tenant": {
    "name": "xxxx-xxxxxxx",
    "editable": true,
    "override": false
  },
  "selfLink": "https://localhost/mgmt/cm/global/appsvcs-templates/bb508779-0dc2-3d54-b6c9-260fe7263085",
  "published": true,
  "generation": 12,
  "description": "HTTPS to HTTP VS will be created, with nodewise LTM policy with added text.(nbcu-xxxxxxx = Legacy) (anow-xxxxxxx = Automation team), HTTP to HTTPS redirect & HSTS enabled.",
  "schemaOverlay": {
    "type": "object",
    "required": [
      "class"
    ],
    "properties": {
      "class": {
        "type": "string",
        "const": "Application"
      },
      "label": {},
      "remark": {},
      "template": {},
      "schemaOverlay": {}
    },
    "definitions": {
      "Pool": {
        "type": "object",
        "properties": {
          "class": {},
          "members": {
            "type": "array",
            "items": {
              "type": "object",
              "properties": {
                "enable": {
                  "type": "boolean",
                  "default": true
                },
                "hostname": {
                  "type": "string"
                },
                "shareNodes": {
                  "type": "boolean",
                  "const": true,
                  "default": true
                },
                "servicePort": {
                  "type": "number",
                  "default": 80
                },
                "autoPopulate": {
                  "type": "boolean",
                  "const": true,
                  "default": true
                },
                "addressDiscovery": {
                  "type": "string",
                  "const": "fqdn",
                  "default": "fqdn"
                }
              }
            }
          },
          "monitors": {
            "type": "array",
            "items": {
              "type": "object",
              "properties": {
                "use": {
                  "type": "string",
                  "default": "mon_http_"
                }
              }
            }
          },
          "loadBalancingMode": {
            "type": "string",
            "default": "least-connections-member"
          }
        },
        "additionalProperties": false
      },
      "iRule": {
        "type": "object",
        "properties": {
          "class": {}
        },
        "additionalProperties": false
      },
      "Monitor": {
        "type": "object",
        "default": {},
        "properties": {
          "send": {
            "type": "string",
            "default": "HEAD / HTTP/1.0\\r\\n\\r\\n"
          },
          "class": {},
          "receive": {
            "type": "string",
            "default": "HTTP/1."
          },
          "monitorType": {
            "type": "string",
            "const": "http",
            "default": "http"
          },
          "receiveDown": {
            "type": "string"
          }
        },
        "additionalProperties": false
      },
      "Properties": {},
      "TLS_Server": {
        "type": "object",
        "default": {},
        "properties": {
          "class": {},
          "sslEnabled": {
            "type": "boolean",
            "const": false,
            "default": false
          },
          "cipherGroup": {
            "type": "object",
            "default": {},
            "properties": {
              "bigip": {
                "type": "string",
                "const": "/Common/prof_cgroup_nbcuni_TLS1.3",
                "default": "/Common/prof_cgroup_nbcuni_TLS1.3"
              }
            }
          },
          "ssl3Enabled": {
            "type": "boolean",
            "const": false,
            "default": false
          },
          "certificates": {
            "type": "array",
            "items": {
              "type": "object",
              "properties": {
                "certificate": {
                  "type": "string",
                  "default": "cert_"
                }
              }
            }
          },
          "tls1_0Enabled": {
            "type": "boolean",
            "const": false,
            "default": false
          },
          "tls1_1Enabled": {
            "type": "boolean",
            "const": false,
            "default": false
          },
          "tls1_3Enabled": {
            "type": "boolean",
            "const": true,
            "default": true
          },
          "renegotiationEnabled": {
            "type": "boolean",
            "const": false,
            "default": false
          }
        },
        "additionalProperties": false
      },
      "Certificate": {
        "type": "object",
        "properties": {
          "class": {},
          "privateKey": {
            "type": "object",
            "properties": {
              "text": {
                "type": "string"
              }
            }
          },
          "certificate": {
            "type": "object",
            "properties": {
              "text": {
                "type": "string"
              }
            }
          }
        },
        "additionalProperties": false
      },
      "Service_HTTPS": {
        "type": "object",
        "default": {},
        "properties": {
          "pool": {
            "type": "string",
            "default": "pool_"
          },
          "snat": {
            "type": "string",
            "default": "none"
          },
          "class": {},
          "enable": {
            "type": "boolean",
            "default": true
          },
          "iRules": {
            "type": "array",
            "items": {
              "type": "object",
              "properties": {
                "bigip": {
                  "type": "string",
                  "default": "/Common/irule_snatautomap_nbcuni"
                }
              }
            }
          },
          "serverTLS": {
            "type": "string",
            "default": "prof_sslc_"
          },
          "profileTCP": {
            "type": "object",
            "default": {},
            "properties": {
              "bigip": {
                "type": "string",
                "const": "/Common/prof_tcp_nbcuni",
                "default": "/Common/prof_tcp_nbcuni"
              }
            }
          },
          "profileHTTP": {
            "type": "object",
            "default": {},
            "properties": {
              "bigip": {
                "type": "string",
                "const": "/Common/prof_https_nbcuni_maintenance.inbcu.com",
                "default": "/Common/prof_https_nbcuni_maintenance.inbcu.com"
              }
            }
          },
          "policyEndpoint": {
            "type": "array",
            "items": {
              "type": "object",
              "properties": {
                "use": {
                  "type": "string",
                  "default": "pol_"
                }
              }
            }
          },
          "shareAddresses": {
            "type": "boolean",
            "const": true,
            "default": true
          },
          "profileAnalytics": {
            "type": "object",
            "default": {},
            "properties": {
              "bigip": {
                "type": "string",
                "const": "/Common/prof_http_ana_nbcuni",
                "default": "/Common/prof_http_ana_nbcuni"
              }
            }
          },
          "profileMultiplex": {
            "type": "object",
            "default": {},
            "properties": {
              "bigip": {
                "type": "string",
                "const": "/Common/prof_oneconn_nbcuni",
                "default": "/Common/prof_oneconn_nbcuni"
              }
            }
          },
          "virtualAddresses": {
            "type": "array"
          },
          "persistenceMethods": {
            "type": "array",
            "items": {
              "type": "object",
              "properties": {
                "bigip": {
                  "type": "string",
                  "default": "/Common/pers_saa_30_nbcuni"
                }
              }
            }
          }
        },
        "additionalProperties": false
      },
      "Endpoint_Policy": {
        "type": "object",
        "properties": {
          "class": {},
          "rules": {
            "type": "array",
            "items": {
              "type": "object",
              "properties": {
                "name": {
                  "type": "string",
                  "default": "pol_rule_"
                },
                "actions": {
                  "type": "array",
                  "items": {
                    "type": "object",
                    "properties": {
                      "type": {
                        "type": "string",
                        "default": "forward"
                      },
                      "event": {
                        "type": "string",
                        "default": "request"
                      },
                      "select": {
                        "type": "object",
                        "properties": {
                          "pool": {
                            "type": "object",
                            "properties": {
                              "use": {
                                "type": "string",
                                "default": "pool_"
                              }
                            }
                          }
                        }
                      }
                    }
                  }
                },
                "conditions": {
                  "type": "array",
                  "items": {
                    "type": "object",
                    "properties": {
                      "all": {
                        "type": "object",
                        "properties": {
                          "values": {
                            "type": "array"
                          },
                          "operand": {
                            "type": "string",
                            "default": "equals"
                          }
                        }
                      },
                      "name": {
                        "type": "string",
                        "default": "Node-Requested"
                      },
                      "type": {
                        "type": "string",
                        "default": "httpHeader"
                      },
                      "event": {
                        "type": "string",
                        "default": "request"
                      }
                    }
                  }
                }
              }
            }
          }
        },
        "additionalProperties": false
      }
    },
    "additionalProperties": {
      "allOf": [
        {
          "anyOf": [
            {
              "properties": {
                "class": {
                  "const": "Certificate"
                }
              }
            },
            {
              "properties": {
                "class": {
                  "const": "Endpoint_Policy"
                }
              }
            },
            {
              "properties": {
                "class": {
                  "const": "Monitor"
                }
              }
            },
            {
              "properties": {
                "class": {
                  "const": "Pool"
                }
              }
            },
            {
              "properties": {
                "class": {
                  "const": "Service_HTTPS"
                }
              }
            },
            {
              "properties": {
                "class": {
                  "const": "TLS_Server"
                }
              }
            },
            {
              "properties": {
                "class": {
                  "const": "iRule"
                }
              }
            }
          ]
        },
        {
          "if": {
            "properties": {
              "class": {
                "const": "Certificate"
              }
            }
          },
          "then": {
            "$ref": "#/definitions/Certificate"
          }
        },
        {
          "if": {
            "properties": {
              "class": {
                "const": "Endpoint_Policy"
              }
            }
          },
          "then": {
            "$ref": "#/definitions/Endpoint_Policy"
          }
        },
        {
          "if": {
            "properties": {
              "class": {
                "const": "Monitor"
              }
            }
          },
          "then": {
            "$ref": "#/definitions/Monitor"
          }
        },
        {
          "if": {
            "properties": {
              "class": {
                "const": "Pool"
              }
            }
          },
          "then": {
            "$ref": "#/definitions/Pool"
          }
        },
        {
          "if": {
            "properties": {
              "class": {
                "const": "Service_HTTPS"
              }
            }
          },
          "then": {
            "$ref": "#/definitions/Service_HTTPS"
          }
        },
        {
          "if": {
            "properties": {
              "class": {
                "const": "TLS_Server"
              }
            }
          },
          "then": {
            "$ref": "#/definitions/TLS_Server"
          }
        },
        {
          "if": {
            "properties": {
              "class": {
                "const": "iRule"
              }
            }
          },
          "then": {
            "$ref": "#/definitions/iRule"
          }
        }
      ]
    }
  },
  "isUICompatible": true,
  "lastUpdateMicros": 1657240041296114
}
