[{
	"op": "add",
	"path": "/Ten_01/NewApp",
	"value":{
            "class": "Application",
            "template": "http",
            "serviceMain": {
               "class": "Service_HTTP",
               "virtualAddresses": [
                  "10.1.10.112"
               ],
               "pool": "web2_pool"
            },
            "web2_pool": {
               "class": "Pool",
               "monitors": [
                  "http"
               ],
               "members": [{
                  "servicePort": 80,
                  "serverAddresses": [
                     "10.1.20.12",
                     "10.1.20.13"
                  ]
               }]
            }
         }
      }]